Name,Vorname,Anmeldename,OU,Gruppe
Mahn,Wolfgang,Mahn,Geschaeftsleitung, Geschaeftsleitung.G	
Schneider,Helga,Schneider,Geschaeftsleitung, Personal.G
Zet, Anne,Zet,Geschaeftsleitung, Personal.G
Lemmon,Sabine,Lemmon,Auftragsbearbeitung,Management.G	
Mall,Tom,Mall,Auftragsbearbeitung,Auftrag.G
Schmidt,Peter,Schmidt,Auftragsbearbeitung,Auftrag.G
Wolz, Werner,Wolz,ServiceUndSupport,Support.G	
Peters,Claus,Peters, ServiceUndSupport,Support.G		
Uhland,Bernd,Uhland, ServiceUndSupport,Support.G		
Inner,Hans,Inner,MultiMedia,Multimedia.G
Klein,Holger,Klein,SoftwareUndTraining,Training.G
Fling,Elena,Fling,SoftwareUndTraining,Software.G                
Orfner,Dieter,Orfner,SoftwareUndTraining,Software.G,                  ,                  		
Werner,Inge,Werner,SoftwareUndTraining,Training.G,