﻿Monat,Umsatz
Januar,20000.98
Februar,34210.87
März, 43420.74
April,452430.53
Mai, 4220.53
Juni, 323450.76
Juli,76540.98
August,535630.75
September, 43430
Oktober,747470
November,565630
Dezember,63530.00
