﻿Time,TemperatureF,DewpointF,PressureIn,WindDirectionDegrees,WindSpeedMPH,WindSpeedGustMPH,Humidity,HourlyPrecipIn
2009-01-11 00:00:00,50.3,37.0,30.36,224,3.0,9.0,60,0.00
2009-01-11 00:30:00,49.1,36.7,30.36,232,3.0,9.0,62,0.00
2009-01-11 01:00:00,49.2,36.8,30.36,220,3.0,9.0,62,0.00
2009-01-11 01:30:00,49.5,36.6,30.34,240,4.0,11.0,61,0.00
2009-01-11 02:00:00,50.6,36.4,30.34,207,2.0,9.0,58,0.00
2009-01-11 02:30:00,50.9,36.2,30.34,230,5.0,11.0,57,0.00
2009-01-11 03:00:00,48.5,36.1,30.34,194,0.0,9.0,62,0.00
2009-01-11 03:30:00,47.3,36.9,30.35,206,2.0,5.0,67,0.00
2009-01-11 04:00:00,46.3,36.3,30.34,111,3.0,6.0,68,0.00
2009-01-11 08:00:00,48.7,35.9,30.36,206,2.0,5.0,61,0.00
2009-01-11 08:30:00,51.0,37.2,30.36,180,1.0,9.0,59,0.00
2009-01-11 08:34:00,50.8,37.0,30.36,193,3.0,9.0,59,0.00
2009-01-11 08:39:00,51.4,37.6,30.37,181,0.0,1.0,59,0.00
2009-01-11 08:44:00,51.9,37.2,30.37,182,2.0,4.0,57,0.00
2009-01-11 08:49:00,51.9,36.7,30.36,210,3.0,6.0,56,0.00
2009-01-11 08:54:00,52.1,37.3,30.36,235,2.0,6.0,57,0.00
2009-01-11 08:59:00,52.2,37.0,30.36,228,2.0,9.0,56,0.00
2009-01-11 09:04:00,52.0,36.8,30.36,223,1.0,9.0,56,0.00
2009-01-11 09:09:00,52.2,37.9,30.37,267,4.0,5.0,58,0.00
2009-01-11 09:14:00,52.7,37.5,30.37,223,5.0,6.0,56,0.00
2009-01-11 09:19:00,52.4,37.6,30.37,244,5.0,9.0,57,0.00
2009-01-11 09:24:00,51.8,37.5,30.37,231,3.0,9.0,58,0.00
2009-01-11 09:29:00,51.6,37.8,30.36,195,2.0,9.0,59,0.00
2009-01-11 09:34:00,51.9,38.0,30.36,197,3.0,9.0,59,0.00
2009-01-11 09:39:00,52.1,37.8,30.36,206,8.0,9.0,58,0.00
2009-01-11 09:44:00,52.5,38.2,30.36,210,3.0,9.0,58,0.00
2009-01-11 09:49:00,53.1,38.3,30.36,261,3.0,9.0,57,0.00
2009-01-11 09:54:00,53.5,38.7,30.37,265,3.0,9.0,57,0.00
2009-01-11 09:59:00,54.1,38.3,30.37,228,1.0,10.0,55,0.00
2009-01-11 10:00:00,54.5,39.1,30.37,233,0.0,10.0,56,0.00
2009-01-11 10:04:00,54.5,39.6,30.37,191,4.0,10.0,57,0.00
2009-01-11 10:09:00,54.7,39.8,30.37,188,6.0,9.0,57,0.00
2009-01-11 10:14:00,54.7,38.9,30.37,240,1.0,9.0,55,0.00
2009-01-11 10:19:00,54.8,38.5,30.37,263,3.0,10.0,54,0.00
2009-01-11 10:24:00,55.2,39.3,30.37,248,1.0,10.0,55,0.00
2009-01-11 10:29:00,55.6,38.3,30.37,192,1.0,10.0,52,0.00
2009-01-11 10:30:00,55.7,36.8,30.36,229,3.0,10.0,49,0.00
2009-01-11 10:34:00,55.9,40.0,30.36,171,3.0,10.0,55,0.00
2009-01-11 10:39:00,55.7,37.4,30.37,218,4.0,12.0,50,0.00
2009-01-11 10:44:00,55.6,37.8,30.36,206,5.0,12.0,51,0.00
2009-01-11 10:49:00,55.7,37.9,30.36,225,2.0,12.0,51,0.00
2009-01-11 10:54:00,56.0,38.2,30.36,236,4.0,12.0,51,0.00
2009-01-11 10:59:00,55.9,37.0,30.36,205,5.0,12.0,49,0.00
2009-01-11 11:00:00,56.2,37.8,30.36,205,2.0,12.0,50,0.00
2009-01-11 11:04:00,56.0,37.1,30.36,247,4.0,12.0,49,0.00
2009-01-11 11:09:00,56.6,37.2,30.36,259,1.0,6.0,48,0.00
2009-01-11 11:14:00,57.0,37.0,30.36,248,6.0,12.0,47,0.00
2009-01-11 11:19:00,56.9,37.4,30.36,258,7.0,12.0,48,0.00
2009-01-11 11:24:00,56.8,37.3,30.35,253,3.0,12.0,48,0.00
2009-01-11 11:29:00,56.9,37.4,30.35,232,2.0,12.0,48,0.00
2009-01-11 11:30:00,57.4,39.4,30.34,252,2.0,12.0,51,0.00
2009-01-11 11:34:00,57.3,37.8,30.34,221,5.0,12.0,48,0.00
2009-01-11 11:39:00,57.7,37.1,30.34,188,10.0,10.0,46,0.00
2009-01-11 11:44:00,58.0,37.4,30.34,260,2.0,10.0,46,0.00
2009-01-11 11:49:00,58.4,37.2,30.34,295,3.0,10.0,45,0.00
2009-01-11 11:54:00,58.4,38.3,30.33,226,2.0,10.0,47,0.00
2009-01-11 11:59:00,58.4,38.3,30.32,22,1.0,10.0,47,0.00
2009-01-11 12:00:00,58.8,39.7,30.32,323,0.0,10.0,49,0.00
2009-01-11 12:04:00,58.7,38.0,30.32,216,2.0,10.0,46,0.00
2009-01-11 12:09:00,59.0,38.3,30.32,305,0.0,3.0,46,0.00
2009-01-11 12:14:00,59.9,38.5,30.31,223,1.0,3.0,45,0.00
2009-01-11 12:19:00,60.5,37.9,30.31,237,4.0,4.0,43,0.00
2009-01-11 12:24:00,60.3,37.7,30.30,209,2.0,6.0,43,0.00
2009-01-11 12:29:00,60.7,39.3,30.30,277,2.0,6.0,45,0.00
2009-01-11 12:30:00,61.4,39.3,30.30,171,1.0,6.0,44,0.00
2009-01-11 12:34:00,61.2,39.1,30.30,305,0.0,6.0,44,0.00
2009-01-11 12:39:00,61.7,38.4,30.30,242,1.0,2.0,42,0.00
2009-01-11 12:44:00,62.0,38.7,30.29,344,1.0,3.0,42,0.00
2009-01-11 12:49:00,62.3,38.3,30.29,327,1.0,3.0,41,0.00
2009-01-11 12:54:00,62.4,35.8,30.29,209,0.0,3.0,37,0.00
2009-01-11 12:59:00,62.1,37.5,30.28,225,1.0,4.0,40,0.00
2009-01-11 13:00:00,62.4,35.8,30.29,218,1.0,6.0,37,0.00
2009-01-11 13:04:00,62.3,37.0,30.29,222,1.0,5.0,39,0.00
2009-01-11 13:09:00,62.4,36.5,30.28,309,1.0,7.0,38,0.00
2009-01-11 13:14:00,62.4,36.5,30.28,65,3.0,7.0,38,0.00
2009-01-11 13:19:00,62.5,35.9,30.28,44,1.0,7.0,37,0.00
2009-01-11 13:24:00,62.6,35.3,30.28,228,1.0,7.0,36,0.00
2009-01-11 13:29:00,62.4,35.1,30.28,214,3.0,7.0,36,0.00
2009-01-11 13:30:00,62.1,40.0,30.27,242,0.0,7.0,44,0.00
2009-01-11 13:34:00,62.0,37.4,30.27,221,4.0,7.0,40,0.00
2009-01-11 13:39:00,62.3,37.0,30.27,219,0.0,2.0,39,0.00
2009-01-11 13:44:00,62.7,36.8,30.26,219,0.0,2.0,38,0.00
2009-01-11 13:49:00,62.7,38.7,30.26,237,1.0,2.0,41,0.00
2009-01-11 13:54:00,62.7,39.9,30.26,237,0.0,2.0,43,0.00
2009-01-11 13:59:00,62.9,36.2,30.26,209,2.0,2.0,37,0.00
2009-01-11 14:00:00,62.8,36.2,30.26,231,2.0,3.0,37,0.00
2009-01-11 14:04:00,62.9,35.6,30.26,231,1.0,3.0,36,0.00
2009-01-11 14:09:00,62.7,36.1,30.25,231,0.0,2.0,37,0.00
2009-01-11 14:14:00,62.7,35.4,30.25,192,3.0,3.0,36,0.00
2009-01-11 14:19:00,62.1,35.5,30.25,203,3.0,4.0,37,0.00
2009-01-11 14:24:00,62.2,37.6,30.25,206,1.0,4.0,40,0.00
2009-01-11 14:29:00,62.7,36.8,30.24,206,0.0,4.0,38,0.00
2009-01-11 14:34:00,63.4,37.4,30.24,218,0.0,4.0,38,0.00
2009-01-11 14:39:00,64.0,39.2,30.24,218,0.0,1.0,40,0.00
2009-01-11 14:44:00,64.8,39.3,30.24,71,0.0,1.0,39,0.00
2009-01-11 14:49:00,65.2,39.0,30.24,47,0.0,2.0,38,0.00
2009-01-11 14:54:00,65.0,36.0,30.23,47,0.0,2.0,34,0.00
2009-01-11 14:59:00,65.0,36.7,30.23,311,1.0,2.0,35,0.00
2009-01-11 15:04:00,64.8,36.5,30.23,304,0.0,2.0,35,0.00
2009-01-11 15:09:00,65.0,36.7,30.23,304,0.0,0.0,35,0.00
2009-01-11 15:14:00,65.3,37.7,30.23,304,0.0,0.0,36,0.00
2009-01-11 15:19:00,65.6,38.7,30.23,304,0.0,0.0,37,0.00
2009-01-11 15:24:00,65.8,37.4,30.23,304,0.0,0.0,35,0.00
2009-01-11 15:29:00,65.7,38.0,30.23,304,0.0,0.0,36,0.00
2009-01-11 15:30:00,65.0,40.1,30.22,304,0.0,0.0,40,0.00
2009-01-11 15:34:00,65.2,40.3,30.22,304,0.0,0.0,40,0.00
2009-01-11 15:39:00,64.6,39.8,30.22,304,0.0,0.0,40,0.00
2009-01-11 15:44:00,63.8,40.3,30.22,304,0.0,1.0,42,0.00
2009-01-11 15:49:00,63.8,40.3,30.22,304,0.0,1.0,42,0.00
2009-01-11 15:54:00,63.7,39.6,30.21,304,0.0,1.0,41,0.00
2009-01-11 15:59:00,63.6,40.1,30.21,304,0.0,1.0,42,0.00
2009-01-11 16:00:00,63.2,41.0,30.21,304,0.0,1.0,44,0.00
2009-01-11 16:04:00,63.4,40.5,30.21,304,0.0,1.0,43,0.00
2009-01-11 16:09:00,63.1,40.9,30.21,304,0.0,1.0,44,0.00
2009-01-11 16:14:00,62.8,41.2,30.21,51,0.0,2.0,45,0.00
2009-01-11 16:30:00,61.6,42.3,30.20,315,0.0,2.0,49,0.00
2009-01-11 16:52:00,61.6,42.3,30.20,315,0.0,2.0,49,0.00
2009-01-11 16:57:00,60.2,42.5,30.20,51,0.0,0.0,52,0.00
2009-01-11 17:02:00,59.0,40.9,30.20,51,0.0,1.0,51,0.00
2009-01-11 17:06:00,57.9,39.4,30.20,51,0.0,0.0,50,0.00
2009-01-11 17:11:00,57.5,41.5,30.20,51,0.0,0.0,55,0.00
2009-01-11 17:16:00,57.3,42.2,30.20,51,0.0,0.0,57,0.00
2009-01-11 17:21:00,57.0,41.9,30.20,51,0.0,0.0,57,0.00
2009-01-11 17:26:00,56.8,42.2,30.20,51,0.0,0.0,58,0.00
2009-01-11 17:31:00,56.4,42.7,30.20,51,0.0,0.0,60,0.00
2009-01-11 17:36:00,56.1,42.4,30.20,51,0.0,0.0,60,0.00
2009-01-11 17:41:00,55.8,40.4,30.19,51,0.0,0.0,56,0.00
2009-01-11 17:46:00,55.6,39.7,30.19,51,0.0,0.0,55,0.00
2009-01-11 17:51:00,55.5,40.1,30.19,51,0.0,1.0,56,0.00
2009-01-11 17:56:00,55.2,39.8,30.19,51,0.0,1.0,56,0.00
2009-01-11 18:01:00,55.3,39.0,30.19,51,0.0,1.0,54,0.00
2009-01-11 18:06:00,55.3,38.5,30.19,51,0.0,0.0,53,0.00
2009-01-11 18:11:00,55.5,37.7,30.19,51,0.0,0.0,51,0.00
2009-01-11 18:16:00,56.0,37.6,30.19,51,0.0,0.0,50,0.00
2009-01-11 18:21:00,56.0,38.2,30.19,51,0.0,1.0,51,0.00
2009-01-11 18:26:00,55.9,38.0,30.19,51,0.0,1.0,51,0.00
2009-01-11 18:31:00,55.5,37.7,30.19,51,0.0,1.0,51,0.00
2009-01-11 18:36:00,55.3,37.5,30.19,51,0.0,0.0,51,0.00
2009-01-11 18:42:00,55.6,37.8,30.19,51,0.0,1.0,51,0.00
2009-01-11 18:47:00,55.9,37.5,30.19,59,2.0,3.0,50,0.00
2009-01-11 18:52:00,55.9,37.0,30.18,60,0.0,3.0,49,0.00
2009-01-11 18:57:00,55.6,38.3,30.18,69,1.0,3.0,52,0.00
2009-01-11 19:02:00,55.5,38.7,30.18,69,0.0,3.0,53,0.00
2009-01-11 19:07:00,55.3,38.5,30.18,69,0.0,0.0,53,0.00
2009-01-11 19:12:00,55.1,38.3,30.18,69,0.0,1.0,53,0.00
2009-01-11 19:17:00,55.0,38.2,30.18,69,0.0,1.0,53,0.00
2009-01-11 19:22:00,54.9,38.6,30.18,69,0.0,1.0,54,0.00
2009-01-11 19:27:00,55.1,37.8,30.18,69,0.0,1.0,52,0.00
2009-01-11 19:32:00,55.4,38.6,30.18,69,0.0,1.0,53,0.00
2009-01-11 19:37:00,55.6,38.8,30.18,69,0.0,2.0,53,0.00
2009-01-11 19:42:00,55.8,38.9,30.18,69,0.0,2.0,53,0.00
2009-01-11 19:47:00,55.9,39.0,30.18,69,0.0,2.0,53,0.00
2009-01-11 19:52:00,55.9,39.5,30.18,69,0.0,2.0,54,0.00
2009-01-11 19:57:00,56.0,39.1,30.18,69,0.0,2.0,53,0.00
2009-01-11 20:02:00,56.3,39.4,30.18,69,0.0,2.0,53,0.00
2009-01-11 20:07:00,56.1,38.7,30.18,69,0.0,0.0,52,0.00
2009-01-11 20:12:00,55.9,38.5,30.17,69,0.0,1.0,52,0.00
2009-01-11 20:17:00,55.7,38.8,30.17,69,0.0,1.0,53,0.00
2009-01-11 20:22:00,55.4,38.6,30.17,69,1.0,2.0,53,0.00
2009-01-11 20:27:00,55.5,38.7,30.17,71,1.0,2.0,53,0.00
2009-01-11 20:32:00,55.5,38.7,30.17,71,0.0,3.0,53,0.00
2009-01-11 20:37:00,55.2,38.9,30.17,71,0.0,0.0,54,0.00
2009-01-11 20:42:00,55.4,38.6,30.16,71,0.0,1.0,53,0.00
2009-01-11 20:47:00,55.9,39.0,30.16,71,0.0,1.0,53,0.00
2009-01-11 20:52:00,55.9,39.0,30.17,71,0.0,1.0,53,0.00
2009-01-11 20:57:00,55.3,39.0,30.17,71,0.0,1.0,54,0.00
2009-01-11 21:00:00,55.2,38.9,30.17,71,2.0,2.0,54,0.00
2009-01-11 21:05:00,55.9,39.5,30.16,72,0.0,2.0,54,0.00
2009-01-11 21:10:00,56.0,39.1,30.16,72,1.0,2.0,53,0.00
2009-01-11 21:15:00,55.5,39.6,30.17,72,0.0,3.0,55,0.00
2009-01-11 21:20:00,55.3,39.4,30.17,72,0.0,3.0,55,0.00
2009-01-11 21:25:00,55.3,39.4,30.17,72,0.0,3.0,55,0.00
2009-01-11 21:30:00,55.1,39.7,30.17,72,0.0,3.0,56,0.00
2009-01-11 21:35:00,55.0,39.6,30.17,72,0.0,3.0,56,0.00
2009-01-11 21:40:00,55.2,40.2,30.17,72,2.0,2.0,57,0.00
2009-01-11 21:45:00,55.3,39.9,30.17,72,2.0,3.0,56,0.00
2009-01-11 21:50:00,55.9,40.0,30.17,74,1.0,3.0,55,0.00
2009-01-11 21:55:00,56.8,40.3,30.17,146,0.0,3.0,54,0.00
2009-01-11 22:00:00,56.7,40.7,30.17,196,2.0,3.0,55,0.00
2009-01-11 22:05:00,56.7,41.2,30.17,249,0.0,3.0,56,0.00
2009-01-11 22:10:00,56.7,40.7,30.17,249,0.0,2.0,55,0.00
2009-01-11 22:15:00,56.4,40.9,30.17,249,0.0,2.0,56,0.00
2009-01-11 22:20:00,56.4,40.0,30.17,176,2.0,4.0,54,0.00
2009-01-11 22:25:00,57.8,40.8,30.17,249,0.0,4.0,53,0.00
2009-01-11 22:30:00,57.9,39.9,30.17,210,4.0,4.0,51,0.00
2009-01-11 22:35:00,60.0,40.3,30.16,207,1.0,7.0,48,0.00
2009-01-11 22:40:00,60.8,40.5,30.17,201,2.0,6.0,47,0.00
2009-01-11 22:45:00,60.8,39.9,30.17,202,4.0,6.0,46,0.00
2009-01-11 22:50:00,61.3,40.4,30.16,190,3.0,6.0,46,0.00
2009-01-11 22:55:00,61.4,39.9,30.16,219,1.0,6.0,45,0.00
2009-01-11 23:00:00,61.4,40.5,30.16,221,4.0,6.0,46,0.00
2009-01-11 23:05:00,61.2,40.3,30.16,213,5.0,6.0,46,0.00
2009-01-11 23:10:00,61.2,39.7,30.16,245,2.0,6.0,45,0.00
2009-01-11 23:15:00,61.1,39.6,30.16,211,3.0,6.0,45,0.00
2009-01-11 23:20:00,61.0,39.5,30.16,206,5.0,6.0,45,0.00
2009-01-11 23:25:00,60.7,39.8,30.16,222,4.0,6.0,46,0.00
2009-01-11 23:30:00,60.7,39.8,30.16,225,3.0,6.0,46,0.00
2009-01-11 23:35:00,60.7,39.8,30.16,223,1.0,7.0,46,0.00
2009-01-11 23:40:00,60.4,39.0,30.16,229,2.0,5.0,45,0.00
2009-01-11 23:45:00,60.0,39.2,30.16,225,1.0,5.0,46,0.00
2009-01-11 23:50:00,60.1,38.7,30.16,221,1.0,5.0,45,0.00
2009-01-11 23:55:00,60.5,39.1,30.16,185,4.0,5.0,45,0.00
